Change Component Designator: Old Designator=CONN3 New Designator=CONN1
Change Component Designator: Old Designator=CONN4 New Designator=CONN2
Change Component Designator: Old Designator=CONN? New Designator=CONN1
