Replace Part C3 GRM155R61H104KE19D in D:\Users\Ebano_Rafael\Google Drive\SmartPlug_v0\SmartPlug_V0R4_Relay_Only\Schematics\Comunicacao_Isolamento.SchDoc with GRM155R61H104KE19D from Capacitores.SchLib
Replace Part C4 GRM155R61H104KE19D in D:\Users\Ebano_Rafael\Google Drive\SmartPlug_v0\SmartPlug_V0R4_Relay_Only\Schematics\Comunicacao_Isolamento.SchDoc with GRM155R61H104KE19D from Capacitores.SchLib
Replace Part C5 AMK105CBJ106MV-F in D:\Users\Ebano_Rafael\Google Drive\SmartPlug_v0\SmartPlug_V0R4_Relay_Only\Schematics\Comunicacao_Isolamento.SchDoc with AMK105CBJ106MV-F from Capacitores.SchLib
Replace Part D2 APHHS1005CGCK in D:\Users\Ebano_Rafael\Google Drive\SmartPlug_v0\SmartPlug_V0R4_Relay_Only\Schematics\Comunicacao_Isolamento.SchDoc with APHHS1005CGCK from Diodos.SchLib
Replace Part D3 APHHS1005CGCK in D:\Users\Ebano_Rafael\Google Drive\SmartPlug_v0\SmartPlug_V0R4_Relay_Only\Schematics\Comunicacao_Isolamento.SchDoc with APHHS1005CGCK from Diodos.SchLib
Replace Part D4 APHHS1005CGCK in D:\Users\Ebano_Rafael\Google Drive\SmartPlug_v0\SmartPlug_V0R4_Relay_Only\Schematics\Comunicacao_Isolamento.SchDoc with APHHS1005CGCK from Diodos.SchLib
Replace Part R2 RC0402JR-0710KL in D:\Users\Ebano_Rafael\Google Drive\SmartPlug_v0\SmartPlug_V0R4_Relay_Only\Schematics\Comunicacao_Isolamento.SchDoc with RC0402JR-0710KL from Resistores.SchLib
Replace Part R3 RC0402JR-071KL in D:\Users\Ebano_Rafael\Google Drive\SmartPlug_v0\SmartPlug_V0R4_Relay_Only\Schematics\Comunicacao_Isolamento.SchDoc with RC0402JR-071KL from Resistores.SchLib
Replace Part R4 RC0402JR-073K3L in D:\Users\Ebano_Rafael\Google Drive\SmartPlug_v0\SmartPlug_V0R4_Relay_Only\Schematics\Comunicacao_Isolamento.SchDoc with RC0402JR-073K3L from Resistores.SchLib
Replace Part R5 RC0402JR-073K3L in D:\Users\Ebano_Rafael\Google Drive\SmartPlug_v0\SmartPlug_V0R4_Relay_Only\Schematics\Comunicacao_Isolamento.SchDoc with RC0402JR-073K3L from Resistores.SchLib
Replace Part R6 RC0402JR-0710KL in D:\Users\Ebano_Rafael\Google Drive\SmartPlug_v0\SmartPlug_V0R4_Relay_Only\Schematics\Comunicacao_Isolamento.SchDoc with RC0402JR-0710KL from Resistores.SchLib
Replace Part SW1 TL1105F160Q in D:\Users\Ebano_Rafael\Google Drive\SmartPlug_v0\SmartPlug_V0R4_Relay_Only\Schematics\Comunicacao_Isolamento.SchDoc with TL1105F160Q from Switches.SchLib
Replace Part SW2 TL1105F160Q in D:\Users\Ebano_Rafael\Google Drive\SmartPlug_v0\SmartPlug_V0R4_Relay_Only\Schematics\Comunicacao_Isolamento.SchDoc with TL1105F160Q from Switches.SchLib
Replace Part TP2 Test Point in D:\Users\Ebano_Rafael\Google Drive\SmartPlug_v0\SmartPlug_V0R4_Relay_Only\Schematics\Comunicacao_Isolamento.SchDoc with Test Point from SensoresFiltros.SchLib
Replace Part TP3 Test Point in D:\Users\Ebano_Rafael\Google Drive\SmartPlug_v0\SmartPlug_V0R4_Relay_Only\Schematics\Comunicacao_Isolamento.SchDoc with Test Point from SensoresFiltros.SchLib
Replace Part TP4 Test Point in D:\Users\Ebano_Rafael\Google Drive\SmartPlug_v0\SmartPlug_V0R4_Relay_Only\Schematics\Comunicacao_Isolamento.SchDoc with Test Point from SensoresFiltros.SchLib
Replace Part TP5 Test Point in D:\Users\Ebano_Rafael\Google Drive\SmartPlug_v0\SmartPlug_V0R4_Relay_Only\Schematics\Comunicacao_Isolamento.SchDoc with Test Point from SensoresFiltros.SchLib
Replace Part U1 ESP-WROOM-02 in D:\Users\Ebano_Rafael\Google Drive\SmartPlug_v0\SmartPlug_V0R4_Relay_Only\Schematics\Comunicacao_Isolamento.SchDoc with ESP-WROOM-02 from Radios.SchLib
