Added Component: Designator=S1(HI-LINK)
Added Pin To Net: NetName=NEUTRO Pin=S1-1
Added Pin To Net: NetName=FASE Pin=S1-2
Added Pin To Net: NetName=GND Pin=S1-3
Added Pin To Net: NetName=NetC1_2 Pin=S1-4
Added Member To Class: ClassName=Alimentacao_Sinalizacao_Conectores Member=Component S1 HLK-PM03
