Removed Pin From Net: NetName=NEUTRO Pin=J1-2
Added Pin To Net: NetName=NEUTRO Pin=J1-4
Added Pin To Net: NetName=NetJ1_2 Pin=J1-2
Added Pin To Net: NetName=NetJ1_2 Pin=RELAY1-1
Added Net: Name=NetJ1_2
