Removed Pin From Net: NetName=LOAD_OUT Pin=CONN?-1
Removed Pin From Net: NetName=FASE Pin=CONN?-2
Removed Member From Class: ClassName=Alimentacao_Sinalizacao_Conectores Member=CONN?
Change Component Designator: OldDesignator=CONN3 NewDesignator=CONN1
Change Component Designator: OldDesignator=CONN4 NewDesignator=CONN2
Added Pin To Net: NetName=LOAD_OUT Pin=CONN1-1
Added Pin To Net: NetName=FASE Pin=CONN1-2
