Removed Pin From Net: NetName=IO12 Pin=R6-1
Removed Pin From Net: NetName=IO13 Pin=R7-1
Removed Pin From Net: NetName=IO12 Pin=U1-4
Removed Pin From Net: NetName=IO13 Pin=U1-5
Added Pin To Net: NetName=NetD2_1 Pin=SW1-1
Added Pin To Net: NetName=NetD3_1 Pin=SW2-1
Change Net Name : Old Net Name=IO14 New Net Name=IO14/MTMS
Change Net Name : Old Net Name=IO15 New Net Name=IO15/MTDO
Added Pin To Net: NetName=IO12/MTDI Pin=R6-1
Added Pin To Net: NetName=IO12/MTDI Pin=U1-4
Added Net: Name=IO12/MTDI
Added Pin To Net: NetName=IO13/MTCK Pin=R7-1
Added Pin To Net: NetName=IO13/MTCK Pin=U1-5
Added Net: Name=IO13/MTCK
Added Member To Class: ClassName=Alimentacao_Sinalizacao_Conectores Member=Component CON1 CONN HEADER 2POS 2.54MM VERT
Added Member To Class: ClassName=Comunicacao_Isolamento Member=Component CON2 SIL VERTICAL PC TAIL PIN HEADER
Added Member To Class: ClassName=Comunicacao_Isolamento Member=Component R1 RES SMD 10K OHM 5% 1/16W 0402
Added Member To Class: ClassName=Comunicacao_Isolamento Member=Component U1 ESP-WROOM-02
