                                                                        S0000001
,,31HOpen CASCADE IGES processor 7.6,13HFilename.iges,                  G0000001
16HOpen CASCADE 7.6,31HOpen CASCADE IGES processor 7.6,32,308,15,308,15,G0000002
,1.,2,2HMM,1,0.01,15H20221229.132558,1E-07,34.,,,11,0,                  G0000003
15H20221229.132558,;                                                    G0000004
     402       1       0       0       0       0       0       000000000D0000001
     402       0       0       1       1                               0D0000002
     402       2       0       0       0       0       0       000020000D0000003
     402       0       0       1       1                               0D0000004
     144       3       0       0       0       0       0       000020000D0000005
     144       0       0       1       0                               0D0000006
     120       4       0       0       0       0       0       000010000D0000007
     120       0       0       1       0                               0D0000008
     110       5       0       0       0       0       0       000010000D0000009
     110       0       0       1       0                               0D0000010
     110       6       0       0       0       0       0       000010000D0000011
     110       0       0       1       0                               0D0000012
     142       7       0       0       0       0       0       000010500D0000013
     142       0       0       1       0                               0D0000014
     102       8       0       0       0       0       0       000010000D0000015
     102       0       0       1       0                               0D0000016
     110       9       0       0       0       0       0       000010000D0000017
     110       0       0       1       0                               0D0000018
     110      10       0       0       0       0       0       000010000D0000019
     110       0       0       1       0                               0D0000020
     110      11       0       0       0       0       0       000010000D0000021
     110       0       0       1       0                               0D0000022
     110      12       0       0       0       0       0       000010000D0000023
     110       0       0       1       0                               0D0000024
     102      13       0       0       0       0       0       000010000D0000025
     102       0       0       1       0                               0D0000026
     110      14       0       0       0       0       0       000010000D0000027
     110       0       0       1       0                               0D0000028
     100      15       0       0       0       0       0       000010000D0000029
     100       0       0       1       0                               0D0000030
     110      16       0       0       0       0       0       000010000D0000031
     110       0       0       1       0                               0D0000032
     100      17       0       0       0       0      35       000010000D0000033
     100       0       0       1       0                               0D0000034
     124      18       0       0       0       0       0       000000000D0000035
     124       0       0       1       0                               0D0000036
     144      19       0       0       0       0       0       000020000D0000037
     144       0       0       1       0                               0D0000038
     120      20       0       0       0       0      41       000010000D0000039
     120       0       0       1       0                               0D0000040
     124      21       0       0       0       0       0       000000000D0000041
     124       0       0       1       0                               0D0000042
     110      22       0       0       0       0       0       000010000D0000043
     110       0       0       1       0                               0D0000044
     110      23       0       0       0       0       0       000010000D0000045
     110       0       0       1       0                               0D0000046
     142      24       0       0       0       0       0       000010500D0000047
     142       0       0       1       0                               0D0000048
     102      25       0       0       0       0       0       000010000D0000049
     102       0       0       1       0                               0D0000050
     110      26       0       0       0       0       0       000010000D0000051
     110       0       0       1       0                               0D0000052
     110      27       0       0       0       0       0       000010000D0000053
     110       0       0       1       0                               0D0000054
     110      28       0       0       0       0       0       000010000D0000055
     110       0       0       1       0                               0D0000056
     110      29       0       0       0       0       0       000010000D0000057
     110       0       0       1       0                               0D0000058
     102      30       0       0       0       0       0       000010000D0000059
     102       0       0       1       0                               0D0000060
     110      31       0       0       0       0       0       000010000D0000061
     110       0       0       1       0                               0D0000062
     100      32       0       0       0       0      65       000010000D0000063
     100       0       0       1       0                               0D0000064
     124      33       0       0       0       0       0       000000000D0000065
     124       0       0       1       0                               0D0000066
     110      34       0       0       0       0       0       000010000D0000067
     110       0       0       1       0                               0D0000068
     100      35       0       0       0       0      71       000010000D0000069
     100       0       0       1       0                               0D0000070
     124      36       0       0       0       0       0       000000000D0000071
     124       0       0       1       0                               0D0000072
     144      37       0       0       0       0       0       000020000D0000073
     144       0       0       1       0                               0D0000074
     120      38       0       0       0       0      77       000010000D0000075
     120       0       0       1       0                               0D0000076
     124      39       0       0       0       0       0       000000000D0000077
     124       0       0       1       0                               0D0000078
     110      40       0       0       0       0       0       000010000D0000079
     110       0       0       1       0                               0D0000080
     110      41       0       0       0       0       0       000010000D0000081
     110       0       0       1       0                               0D0000082
     142      42       0       0       0       0       0       000010500D0000083
     142       0       0       1       0                               0D0000084
     102      43       0       0       0       0       0       000010000D0000085
     102       0       0       1       0                               0D0000086
     110      44       0       0       0       0       0       000010000D0000087
     110       0       0       1       0                               0D0000088
     110      45       0       0       0       0       0       000010000D0000089
     110       0       0       1       0                               0D0000090
     110      46       0       0       0       0       0       000010000D0000091
     110       0       0       1       0                               0D0000092
     110      47       0       0       0       0       0       000010000D0000093
     110       0       0       1       0                               0D0000094
     102      48       0       0       0       0       0       000010000D0000095
     102       0       0       1       0                               0D0000096
     110      49       0       0       0       0       0       000010000D0000097
     110       0       0       1       0                               0D0000098
     100      50       0       0       0       0     101       000010000D0000099
     100       0       0       1       0                               0D0000100
     124      51       0       0       0       0       0       000000000D0000101
     124       0       0       1       0                               0D0000102
     110      52       0       0       0       0       0       000010000D0000103
     110       0       0       1       0                               0D0000104
     100      53       0       0       0       0     107       000010000D0000105
     100       0       0       1       0                               0D0000106
     124      54       0       0       0       0       0       000000000D0000107
     124       0       0       1       0                               0D0000108
     144      55       0       0       0       0       0       000020000D0000109
     144       0       0       1       0                               0D0000110
     108      56       0       0       0       0       0       000010000D0000111
     108       0       0       1       0                               0D0000112
     142      57       0       0       0       0       0       000010500D0000113
     142       0       0       1       0                               0D0000114
     100      58       0       0       0       0     117       000010000D0000115
     100       0       0       1       0                               0D0000116
     124      59       0       0       0       0       0       000000000D0000117
     124       0       0       1       0                               0D0000118
     144      60       0       0       0       0       0       000020000D0000119
     144       0       0       1       0                               0D0000120
     108      61       0       0       0       0       0       000010000D0000121
     108       0       0       1       0                               0D0000122
     142      62       0       0       0       0       0       000010500D0000123
     142       0       0       1       0                               0D0000124
     100      63       0       0       0       0     127       000010000D0000125
     100       0       0       1       0                               0D0000126
     124      64       0       0       0       0       0       000000000D0000127
     124       0       0       1       0                               0D0000128
     402      65       0       0       0       0       0       000020000D0000129
     402       0       0       1       1                               0D0000130
     144      66       0       0       0       0       0       000020000D0000131
     144       0       0       1       0                               0D0000132
     120      67       0       0       0       0       0       000010000D0000133
     120       0       0       1       0                               0D0000134
     110      68       0       0       0       0       0       000010000D0000135
     110       0       0       1       0                               0D0000136
     110      69       0       0       0       0       0       000010000D0000137
     110       0       0       1       0                               0D0000138
     142      70       0       0       0       0       0       000010500D0000139
     142       0       0       1       0                               0D0000140
     102      71       0       0       0       0       0       000010000D0000141
     102       0       0       1       0                               0D0000142
     110      72       0       0       0       0       0       000010000D0000143
     110       0       0       1       0                               0D0000144
     110      73       0       0       0       0       0       000010000D0000145
     110       0       0       1       0                               0D0000146
     110      74       0       0       0       0       0       000010000D0000147
     110       0       0       1       0                               0D0000148
     110      75       0       0       0       0       0       000010000D0000149
     110       0       0       1       0                               0D0000150
     102      76       0       0       0       0       0       000010000D0000151
     102       0       0       1       0                               0D0000152
     110      77       0       0       0       0       0       000010000D0000153
     110       0       0       1       0                               0D0000154
     100      78       0       0       0       0       0       000010000D0000155
     100       0       0       1       0                               0D0000156
     110      79       0       0       0       0       0       000010000D0000157
     110       0       0       1       0                               0D0000158
     100      80       0       0       0       0     161       000010000D0000159
     100       0       0       1       0                               0D0000160
     124      81       0       0       0       0       0       000000000D0000161
     124       0       0       2       0                               0D0000162
     144      83       0       0       0       0       0       000020000D0000163
     144       0       0       1       0                               0D0000164
     120      84       0       0       0       0     167       000010000D0000165
     120       0       0       1       0                               0D0000166
     124      85       0       0       0       0       0       000000000D0000167
     124       0       0       2       0                               0D0000168
     110      87       0       0       0       0       0       000010000D0000169
     110       0       0       1       0                               0D0000170
     110      88       0       0       0       0       0       000010000D0000171
     110       0       0       1       0                               0D0000172
     142      89       0       0       0       0       0       000010500D0000173
     142       0       0       1       0                               0D0000174
     102      90       0       0       0       0       0       000010000D0000175
     102       0       0       1       0                               0D0000176
     110      91       0       0       0       0       0       000010000D0000177
     110       0       0       1       0                               0D0000178
     110      92       0       0       0       0       0       000010000D0000179
     110       0       0       1       0                               0D0000180
     110      93       0       0       0       0       0       000010000D0000181
     110       0       0       1       0                               0D0000182
     110      94       0       0       0       0       0       000010000D0000183
     110       0       0       1       0                               0D0000184
     102      95       0       0       0       0       0       000010000D0000185
     102       0       0       1       0                               0D0000186
     110      96       0       0       0       0       0       000010000D0000187
     110       0       0       1       0                               0D0000188
     100      97       0       0       0       0     191       000010000D0000189
     100       0       0       1       0                               0D0000190
     124      98       0       0       0       0       0       000000000D0000191
     124       0       0       2       0                               0D0000192
     110     100       0       0       0       0       0       000010000D0000193
     110       0       0       1       0                               0D0000194
     100     101       0       0       0       0     197       000010000D0000195
     100       0       0       1       0                               0D0000196
     124     102       0       0       0       0       0       000000000D0000197
     124       0       0       2       0                               0D0000198
     144     104       0       0       0       0       0       000020000D0000199
     144       0       0       1       0                               0D0000200
     120     105       0       0       0       0     203       000010000D0000201
     120       0       0       1       0                               0D0000202
     124     106       0       0       0       0       0       000000000D0000203
     124       0       0       2       0                               0D0000204
     110     108       0       0       0       0       0       000010000D0000205
     110       0       0       1       0                               0D0000206
     110     109       0       0       0       0       0       000010000D0000207
     110       0       0       1       0                               0D0000208
     142     110       0       0       0       0       0       000010500D0000209
     142       0       0       1       0                               0D0000210
     102     111       0       0       0       0       0       000010000D0000211
     102       0       0       1       0                               0D0000212
     110     112       0       0       0       0       0       000010000D0000213
     110       0       0       1       0                               0D0000214
     110     113       0       0       0       0       0       000010000D0000215
     110       0       0       1       0                               0D0000216
     110     114       0       0       0       0       0       000010000D0000217
     110       0       0       1       0                               0D0000218
     110     115       0       0       0       0       0       000010000D0000219
     110       0       0       1       0                               0D0000220
     102     116       0       0       0       0       0       000010000D0000221
     102       0       0       1       0                               0D0000222
     110     117       0       0       0       0       0       000010000D0000223
     110       0       0       1       0                               0D0000224
     100     118       0       0       0       0     227       000010000D0000225
     100       0       0       1       0                               0D0000226
     124     119       0       0       0       0       0       000000000D0000227
     124       0       0       2       0                               0D0000228
     110     121       0       0       0       0       0       000010000D0000229
     110       0       0       1       0                               0D0000230
     100     122       0       0       0       0     233       000010000D0000231
     100       0       0       1       0                               0D0000232
     124     123       0       0       0       0       0       000000000D0000233
     124       0       0       2       0                               0D0000234
     144     125       0       0       0       0       0       000020000D0000235
     144       0       0       1       0                               0D0000236
     108     126       0       0       0       0       0       000010000D0000237
     108       0       0       1       0                               0D0000238
     142     127       0       0       0       0       0       000010500D0000239
     142       0       0       1       0                               0D0000240
     100     128       0       0       0       0     243       000010000D0000241
     100       0       0       1       0                               0D0000242
     124     129       0       0       0       0       0       000000000D0000243
     124       0       0       2       0                               0D0000244
     144     131       0       0       0       0       0       000020000D0000245
     144       0       0       1       0                               0D0000246
     108     132       0       0       0       0       0       000010000D0000247
     108       0       0       2       0                               0D0000248
     142     134       0       0       0       0       0       000010500D0000249
     142       0       0       1       0                               0D0000250
     100     135       0       0       0       0     253       000010000D0000251
     100       0       0       1       0                               0D0000252
     124     136       0       0       0       0       0       000000000D0000253
     124       0       0       2       0                               0D0000254
402,2,3,129;                                                     0000001P0000001
402,5,5,37,73,109,119;                                           0000003P0000002
144,7,1,0,13;                                                    0000005P0000003
120,9,11,6.283185307,12.566370614;                               0000007P0000004
110,0.,0.,1.,0.,0.,0.;                                           0000009P0000005
110,8.,0.,0.,8.,0.,28.;                                          0000011P0000006
142,0,7,15,25,3;                                                 0000013P0000007
102,4,17,19,21,23;                                               0000015P0000008
110,1.,12.566370614,0.,4.982669283E-17,12.566370614,0.;          0000017P0000009
110,4.982669283E-17,12.566370614,0.,0.,6.283185307,0.;           0000019P0000010
110,0.,6.283185307,0.,1.,6.283185307,0.;                         0000021P0000011
110,1.,6.283185307,0.,1.,12.566370614,0.;                        0000023P0000012
102,4,27,29,31,33;                                               0000025P0000013
110,8.,-6.16E-15,28.,8.,0.,-2.2E-16;                             0000027P0000014
100,0.,0.,0.,8.,0.,8.,0.;                                        0000029P0000015
110,8.,0.,-2.2E-16,8.,-6.16E-15,28.;                             0000031P0000016
100,0.,0.,0.,8.,0.,8.,0.;                                        0000033P0000017
124,1.,0.,0.,0.,0.,-1.,-2.2E-16,6.22E-15,0.,2.2E-16,-1.,28.;     0000035P0000018
144,39,1,0,47;                                                   0000037P0000019
120,43,45,6.283185307,12.566370614;                              0000039P0000020
124,1.,0.,0.,0.,0.,1.,2.2E-16,6.22E-15,0.,-2.2E-16,1.,28.;       0000041P0000021
110,0.,0.,1.,0.,0.,0.;                                           0000043P0000022
110,8.,0.,0.,12.5,0.,3.;                                         0000045P0000023
142,0,39,49,59,3;                                                0000047P0000024
102,4,51,53,55,57;                                               0000049P0000025
110,1.,12.566370614,0.,2.579628454E-16,12.566370614,0.;          0000051P0000026
110,2.579628454E-16,12.566370614,0.,0.,6.283185307,0.;           0000053P0000027
110,0.,6.283185307,0.,1.,6.283185307,0.;                         0000055P0000028
110,1.,6.283185307,0.,1.,12.566370614,0.;                        0000057P0000029
102,4,61,63,67,69;                                               0000059P0000030
110,12.5,-6.86899923E-15,31.,8.,-6.22E-15,28.;                   0000061P0000031
100,0.,0.,0.,8.,0.,8.,0.;                                        0000063P0000032
124,1.,0.,0.,0.,0.,1.,2.2E-16,6.22E-15,0.,-2.2E-16,1.,28.;       0000065P0000033
110,8.,-6.22E-15,28.,12.5,-6.86899923E-15,31.;                   0000067P0000034
100,0.,0.,0.,12.5,0.,12.5,0.;                                    0000069P0000035
124,1.,0.,0.,0.,0.,-1.,-2.2E-16,6.88E-15,0.,2.2E-16,-1.,31.;     0000071P0000036
144,75,1,0,83;                                                   0000073P0000037
120,79,81,6.283185307,12.566370614;                              0000075P0000038
124,1.,0.,0.,0.,0.,1.,2.2E-16,6.88E-15,0.,-2.2E-16,1.,31.;       0000077P0000039
110,0.,0.,1.,0.,0.,0.;                                           0000079P0000040
110,12.5,0.,0.,12.5,0.,3.;                                       0000081P0000041
142,0,75,85,95,3;                                                0000083P0000042
102,4,87,89,91,93;                                               0000085P0000043
110,1.,12.566370614,0.,4.650491331E-16,12.566370614,0.;          0000087P0000044
110,4.650491331E-16,12.566370614,0.,0.,6.283185307,0.;           0000089P0000045
110,0.,6.283185307,0.,1.,6.283185307,0.;                         0000091P0000046
110,1.,6.283185307,0.,1.,12.566370614,0.;                        0000093P0000047
102,4,97,99,103,105;                                             0000095P0000048
110,12.5,-7.54E-15,34.,12.5,-6.88E-15,31.;                       0000097P0000049
100,0.,0.,0.,12.5,0.,12.5,0.;                                    0000099P0000050
124,1.,0.,0.,0.,0.,1.,2.2E-16,6.88E-15,0.,-2.2E-16,1.,31.;       0000101P0000051
110,12.5,-6.88E-15,31.,12.5,-7.54E-15,34.;                       0000103P0000052
100,0.,0.,0.,12.5,0.,12.5,0.;                                    0000105P0000053
124,1.,0.,0.,0.,0.,-1.,-2.2E-16,7.55E-15,0.,2.2E-16,-1.,34.;     0000107P0000054
144,111,1,0,113;                                                 0000109P0000055
108,-0.,2.2E-16,1.,34.,0,0.,7.55E-15,34.,0.;                     0000111P0000056
142,0,111,0,115,2;                                               0000113P0000057
100,0.,0.,0.,12.5,0.,12.5,0.;                                    0000115P0000058
124,1.,0.,0.,0.,0.,1.,2.2E-16,7.55E-15,0.,-2.2E-16,1.,34.;       0000117P0000059
144,121,1,0,123;                                                 0000119P0000060
108,0.,-2.2E-16,-1.,2.2E-16,0,0.,0.,-2.2E-16,0.;                 0000121P0000061
142,0,121,0,125,2;                                               0000123P0000062
100,0.,0.,0.,8.,0.,8.,0.;                                        0000125P0000063
124,1.,0.,0.,0.,0.,-1.,-2.2E-16,0.,0.,2.2E-16,-1.,-2.2E-16;      0000127P0000064
402,5,131,163,199,235,245;                                       0000129P0000065
144,133,1,0,139;                                                 0000131P0000066
120,135,137,6.283185307,12.566370614;                            0000133P0000067
110,0.,0.,1.,0.,0.,0.;                                           0000135P0000068
110,8.,0.,0.,8.,0.,28.;                                          0000137P0000069
142,0,133,141,151,3;                                             0000139P0000070
102,4,143,145,147,149;                                           0000141P0000071
110,1.,12.566370614,0.,4.982669283E-17,12.566370614,0.;          0000143P0000072
110,4.982669283E-17,12.566370614,0.,0.,6.283185307,0.;           0000145P0000073
110,0.,6.283185307,0.,1.,6.283185307,0.;                         0000147P0000074
110,1.,6.283185307,0.,1.,12.566370614,0.;                        0000149P0000075
102,4,153,155,157,159;                                           0000151P0000076
110,8.,6.217248938E-15,28.,8.,-4.884981308E-32,-2.2E-16;         0000153P0000077
100,0.,0.,0.,8.,0.,8.,0.;                                        0000155P0000078
110,8.,-4.884981308E-32,-2.2E-16,8.,6.217248938E-15,28.;         0000157P0000079
100,0.,0.,0.,8.,0.,8.,0.;                                        0000159P0000080
124,1.,0.,0.,0.,0.,-1.,-6.620446049E-16,1.864724894E-14,0.,      0000161P0000081
6.620446049E-16,-1.,28.;                                         0000161P0000082
144,165,1,0,173;                                                 0000163P0000083
120,169,171,6.283185307,12.566370614;                            0000165P0000084
124,1.,0.,0.,0.,0.,1.,6.620446049E-16,1.864724894E-14,0.,        0000167P0000085
-6.620446049E-16,1.,28.;                                         0000167P0000086
110,0.,0.,1.,0.,0.,0.;                                           0000169P0000087
110,8.,0.,0.,12.5,0.,3.;                                         0000171P0000088
142,0,165,175,185,3;                                             0000173P0000089
102,4,177,179,181,183;                                           0000175P0000090
110,1.,12.566370614,0.,2.579628454E-16,12.566370614,0.;          0000177P0000091
110,2.579628454E-16,12.566370614,0.,0.,6.283185307,0.;           0000179P0000092
110,0.,6.283185307,0.,1.,6.283185307,0.;                         0000181P0000093
110,1.,6.283185307,0.,1.,12.566370614,0.;                        0000183P0000094
102,4,187,189,193,195;                                           0000185P0000095
110,12.5,6.883382753E-15,31.,8.,6.217248938E-15,28.;             0000187P0000096
100,0.,0.,0.,8.,0.,8.,0.;                                        0000189P0000097
124,1.,0.,0.,0.,0.,1.,6.620446049E-16,1.864724894E-14,0.,        0000191P0000098
-6.620446049E-16,1.,28.;                                         0000191P0000099
110,8.,6.217248938E-15,28.,12.5,6.883382753E-15,31.;             0000193P0000100
100,0.,0.,0.,12.5,0.,12.5,0.;                                    0000195P0000101
124,1.,0.,0.,0.,0.,-1.,-6.620446049E-16,2.065338275E-14,0.,      0000197P0000102
6.620446049E-16,-1.,31.;                                         0000197P0000103
144,201,1,0,209;                                                 0000199P0000104
120,205,207,6.283185307,12.566370614;                            0000201P0000105
124,1.,0.,0.,0.,0.,1.,6.620446049E-16,2.065338275E-14,0.,        0000203P0000106
-6.620446049E-16,1.,31.;                                         0000203P0000107
110,0.,0.,1.,0.,0.,0.;                                           0000205P0000108
110,12.5,0.,0.,12.5,0.,3.;                                       0000207P0000109
142,0,201,211,221,3;                                             0000209P0000110
102,4,213,215,217,219;                                           0000211P0000111
110,1.,12.566370614,0.,4.650491331E-16,12.566370614,0.;          0000213P0000112
110,4.650491331E-16,12.566370614,0.,0.,6.283185307,0.;           0000215P0000113
110,0.,6.283185307,0.,1.,6.283185307,0.;                         0000217P0000114
110,1.,6.283185307,0.,1.,12.566370614,0.;                        0000219P0000115
102,4,223,225,229,231;                                           0000221P0000116
110,12.5,7.549516567E-15,34.,12.5,6.883382753E-15,31.;           0000223P0000117
100,0.,0.,0.,12.5,0.,12.5,0.;                                    0000225P0000118
124,1.,0.,0.,0.,0.,1.,6.620446049E-16,2.065338275E-14,0.,        0000227P0000119
-6.620446049E-16,1.,31.;                                         0000227P0000120
110,12.5,6.883382753E-15,31.,12.5,7.549516567E-15,34.;           0000229P0000121
100,0.,0.,0.,12.5,0.,12.5,0.;                                    0000231P0000122
124,1.,0.,0.,0.,0.,-1.,-6.620446049E-16,2.264951657E-14,0.,      0000233P0000123
6.620446049E-16,-1.,34.;                                         0000233P0000124
144,237,1,0,239;                                                 0000235P0000125
108,-0.,6.620446049E-16,1.,34.,0,0.,2.264951657E-14,34.,0.;      0000237P0000126
142,0,237,0,241,2;                                               0000239P0000127
100,0.,0.,0.,12.5,0.,12.5,0.;                                    0000241P0000128
124,1.,0.,0.,0.,0.,1.,6.620446049E-16,2.264951657E-14,0.,        0000243P0000129
-6.620446049E-16,1.,34.;                                         0000243P0000130
144,247,1,0,249;                                                 0000245P0000131
108,0.,-6.620446049E-16,-1.,2.2E-16,0,0.,-4.884981308E-32,       0000247P0000132
-2.2E-16,0.;                                                     0000247P0000133
142,0,247,0,251,2;                                               0000249P0000134
100,0.,0.,0.,8.,0.,8.,0.;                                        0000251P0000135
124,1.,0.,0.,0.,0.,-1.,-6.620446049E-16,-4.884981308E-32,0.,     0000253P0000136
6.620446049E-16,-1.,-2.2E-16;                                    0000253P0000137
S      1G      4D    254P    137                                        T0000001
