G04*
G04 #@! TF.GenerationSoftware,Altium Limited,Altium Designer,22.4.2 (48)*
G04*
G04 Layer_Physical_Order=1*
G04 Layer_Color=255*
%FSLAX25Y25*%
%MOIN*%
G70*
G04*
G04 #@! TF.SameCoordinates,877E18DD-4507-4396-8063-627FBD4F682B*
G04*
G04*
G04 #@! TF.FilePolarity,Positive*
G04*
G01*
G75*
%ADD11C,0.01000*%
%ADD15R,0.15748X0.15748*%
%ADD16R,0.05847X0.03543*%
%ADD17R,0.02756X0.02362*%
%ADD18R,0.05315X0.04331*%
%ADD19R,0.02362X0.02756*%
%ADD20R,0.05709X0.05315*%
%ADD21R,0.06299X0.06890*%
%ADD22R,0.01968X0.02362*%
%ADD37C,0.02000*%
%ADD38C,0.06299*%
%ADD39R,0.06000X0.06000*%
%ADD40C,0.06000*%
%ADD41R,0.06000X0.06000*%
%ADD42C,0.03937*%
%ADD43C,0.05000*%
G36*
X69577Y153500D02*
X73500D01*
Y152500D01*
X69577D01*
Y150228D01*
X69577D01*
Y149866D01*
X69577D01*
Y144461D01*
X69577Y144323D01*
Y143961D01*
X69577Y143823D01*
Y138555D01*
X69577Y138417D01*
Y138055D01*
X69577Y137917D01*
Y137323D01*
X63061D01*
X49442Y150942D01*
X48780Y151384D01*
X48000Y151539D01*
X21364D01*
X21301Y151649D01*
X20649Y152301D01*
X19851Y152761D01*
X18961Y153000D01*
X18039D01*
X17149Y152761D01*
X16351Y152301D01*
X15699Y151649D01*
X15238Y150851D01*
X15000Y149961D01*
Y149039D01*
X15238Y148149D01*
X15699Y147351D01*
X16351Y146699D01*
X17149Y146239D01*
X18039Y146000D01*
X18961D01*
X19851Y146239D01*
X20649Y146699D01*
X21301Y147351D01*
X21364Y147461D01*
X47155D01*
X60775Y133842D01*
X61436Y133399D01*
X62217Y133244D01*
X69223D01*
X69577Y132891D01*
X69577Y132150D01*
X69577Y132012D01*
Y130645D01*
X67606D01*
X66826Y130490D01*
X66164Y130048D01*
X66164Y130048D01*
X51058Y114942D01*
X50616Y114280D01*
X50461Y113500D01*
Y78249D01*
X50616Y77469D01*
X51058Y76807D01*
X61222Y66643D01*
X61031Y66181D01*
X60138D01*
Y64000D01*
X59638D01*
Y63500D01*
X57260D01*
Y62858D01*
X56657D01*
Y64890D01*
X49343D01*
X49343Y64890D01*
Y64890D01*
X49056Y65297D01*
X48911Y65548D01*
X48138Y66321D01*
X47192Y66867D01*
X46137Y67150D01*
X45044D01*
X43989Y66867D01*
X43043Y66321D01*
X42270Y65548D01*
X41724Y64602D01*
X41441Y63546D01*
Y62454D01*
X41724Y61398D01*
X42270Y60452D01*
X43043Y59680D01*
X43551Y59386D01*
Y56409D01*
X43551Y56409D01*
X43551Y56409D01*
X43623Y56047D01*
X43707Y55629D01*
X43707Y55629D01*
X43707Y55629D01*
X43929Y55296D01*
X44149Y54967D01*
X44149Y54967D01*
X44149Y54967D01*
X46625Y52491D01*
X46434Y52029D01*
X14950D01*
X14365Y51913D01*
X13869Y51581D01*
X8287Y46000D01*
X2450D01*
Y38000D01*
X10450D01*
Y43837D01*
X15583Y48971D01*
X17130D01*
X17319Y48471D01*
X16679Y47831D01*
X16133Y46885D01*
X15850Y45830D01*
Y45783D01*
X20000D01*
X24149D01*
Y45830D01*
X23867Y46885D01*
X23321Y47831D01*
X22681Y48471D01*
X22870Y48971D01*
X42721D01*
X42909Y48471D01*
X42270Y47831D01*
X41724Y46885D01*
X41441Y45830D01*
Y45783D01*
X45591D01*
X49740D01*
Y45830D01*
X49693Y46007D01*
X50113Y46369D01*
X50512Y46290D01*
X61637D01*
X62222Y46406D01*
X62718Y46738D01*
X63597Y47616D01*
X63905Y48077D01*
X64147Y48319D01*
X66740D01*
Y52681D01*
X61677D01*
Y55069D01*
X66740D01*
Y59431D01*
X66598D01*
Y61819D01*
X66740D01*
Y66181D01*
X66598Y66190D01*
X66443Y66971D01*
X66001Y67632D01*
X66001Y67632D01*
X54539Y79094D01*
Y112655D01*
X68451Y126567D01*
X69210D01*
X69577Y126244D01*
X69577Y126067D01*
Y123972D01*
X77423D01*
Y126106D01*
X77423Y126244D01*
Y126606D01*
X77423Y126744D01*
Y132012D01*
X77423Y132150D01*
Y132512D01*
X77423Y132650D01*
Y137917D01*
X77423Y138055D01*
Y138417D01*
X77423Y138555D01*
Y143823D01*
X77423Y143961D01*
Y144323D01*
X77423Y144461D01*
Y147703D01*
X77857Y148137D01*
X78319Y147946D01*
Y145984D01*
Y144138D01*
X80500D01*
Y143638D01*
X81000D01*
Y141260D01*
X81780D01*
Y140681D01*
X81935Y139901D01*
X82377Y139239D01*
X82961Y138655D01*
Y137700D01*
X83000Y137503D01*
Y131700D01*
X89971D01*
Y129834D01*
X89837Y129700D01*
X83000D01*
Y121700D01*
X91000D01*
Y126537D01*
X91509Y127046D01*
X91971Y126855D01*
Y109634D01*
X91462Y109125D01*
X91000Y109316D01*
Y109700D01*
X83933D01*
X83884Y109945D01*
X83442Y110606D01*
X82741Y111307D01*
X83055Y111700D01*
X83477Y111700D01*
X86500D01*
Y115200D01*
X83000D01*
Y112197D01*
X83000Y111756D01*
X82607Y111441D01*
X81539Y112509D01*
Y114500D01*
X81384Y115280D01*
X80942Y115942D01*
X78647Y118237D01*
X77985Y118679D01*
X77423Y118791D01*
Y120201D01*
X77423Y120338D01*
Y120701D01*
X77423Y120838D01*
Y122972D01*
X69577D01*
Y120838D01*
X69577Y120701D01*
Y120338D01*
X69577Y120201D01*
Y114933D01*
X69577Y114795D01*
X69577D01*
Y114433D01*
X69577D01*
Y109028D01*
X69577Y108890D01*
X69577D01*
Y108528D01*
X69577D01*
Y102984D01*
X71461D01*
Y43845D01*
X65297Y37681D01*
X60138D01*
Y35500D01*
X59638D01*
Y35000D01*
X57260D01*
Y34494D01*
X56657D01*
Y36390D01*
X50000D01*
X49695Y36786D01*
X49740Y36954D01*
Y38046D01*
X49457Y39102D01*
X48911Y40048D01*
X48138Y40821D01*
X47649Y41103D01*
Y41680D01*
X48138Y41963D01*
X48911Y42735D01*
X49457Y43682D01*
X49740Y44737D01*
Y44783D01*
X45591D01*
X41441D01*
Y44737D01*
X41724Y43682D01*
X42270Y42735D01*
X43043Y41963D01*
X43532Y41680D01*
Y41103D01*
X43043Y40821D01*
X42270Y40048D01*
X41724Y39102D01*
X41441Y38046D01*
Y36954D01*
X41724Y35898D01*
X42270Y34952D01*
X43043Y34179D01*
X43551Y33886D01*
Y32456D01*
X43461Y32000D01*
Y29000D01*
X43616Y28220D01*
X44058Y27558D01*
X47657Y23959D01*
X47350Y23559D01*
X47192Y23650D01*
X46137Y23933D01*
X46091D01*
Y20283D01*
X49740D01*
Y20330D01*
X49955Y20610D01*
X56657D01*
Y20904D01*
X57157Y21169D01*
X57260Y21099D01*
Y19819D01*
X66740D01*
Y20471D01*
X84311D01*
X85471Y19311D01*
Y17157D01*
X80555D01*
Y13500D01*
X79555D01*
Y17157D01*
X76358D01*
Y18945D01*
X72709D01*
Y14500D01*
Y10055D01*
X76201D01*
Y9843D01*
X79320D01*
X79386Y9343D01*
X78956Y9228D01*
X78044Y8701D01*
X77299Y7956D01*
X76772Y7044D01*
X76500Y6027D01*
Y4973D01*
X76772Y3956D01*
X77299Y3044D01*
X78044Y2299D01*
X78956Y1773D01*
X79973Y1500D01*
X81027D01*
X82044Y1773D01*
X82956Y2299D01*
X83701Y3044D01*
X84227Y3956D01*
X84234Y3982D01*
X85521D01*
X85521Y3982D01*
X85522Y3982D01*
X85940Y4065D01*
X86302Y4137D01*
X86302Y4137D01*
X86302Y4137D01*
X86650Y4370D01*
X86963Y4579D01*
X86963Y4579D01*
X86963Y4579D01*
X88442Y6058D01*
X88651Y6372D01*
X88884Y6720D01*
X88884Y6720D01*
X88884Y6720D01*
X88956Y7082D01*
X89039Y7500D01*
Y9843D01*
X90799D01*
Y17157D01*
X88529D01*
Y19945D01*
X88413Y20530D01*
X88081Y21026D01*
X86026Y23081D01*
X85530Y23413D01*
X84945Y23529D01*
X66740D01*
Y24181D01*
X61677D01*
Y26569D01*
X66740D01*
Y30931D01*
X66401D01*
Y33319D01*
X66740D01*
Y33608D01*
X66780Y33616D01*
X67442Y34058D01*
X74942Y41558D01*
X75384Y42220D01*
X75539Y43000D01*
Y102984D01*
X76961D01*
Y89500D01*
X77116Y88720D01*
X77558Y88058D01*
X81058Y84558D01*
X81720Y84116D01*
X82500Y83961D01*
X83000D01*
Y81700D01*
X91000D01*
Y89700D01*
X83000D01*
Y89037D01*
X82538Y88846D01*
X81039Y90345D01*
Y95924D01*
X81501Y96115D01*
X83000Y94616D01*
Y91700D01*
X91000D01*
Y95503D01*
X91039Y95700D01*
X91000Y95897D01*
Y99700D01*
X84039D01*
Y101700D01*
X91000D01*
Y104364D01*
X91081Y104419D01*
X94038Y107375D01*
X94500Y107184D01*
Y0D01*
X21618D01*
X21600Y61D01*
X21598Y133D01*
X21182Y1887D01*
X21152Y1953D01*
X21140Y2023D01*
X20484Y3703D01*
X20446Y3763D01*
X20424Y3831D01*
X19542Y5404D01*
X19495Y5458D01*
X19464Y5523D01*
X18372Y6958D01*
X18318Y7005D01*
X18278Y7064D01*
X16997Y8334D01*
X16938Y8373D01*
X16890Y8427D01*
X15445Y9506D01*
X15380Y9537D01*
X15326Y9583D01*
X13745Y10451D01*
X13677Y10472D01*
X13616Y10510D01*
X11930Y11150D01*
X11860Y11162D01*
X11795Y11191D01*
X10036Y11591D01*
X9965Y11593D01*
X9896Y11613D01*
X8099Y11765D01*
X8028Y11757D01*
X7957Y11767D01*
X6156Y11668D01*
X6087Y11650D01*
X6016Y11650D01*
X4246Y11302D01*
X4180Y11274D01*
X4109Y11265D01*
X2405Y10674D01*
X2344Y10638D01*
X2275Y10618D01*
X670Y9797D01*
X614Y9752D01*
X548Y9723D01*
X444Y9650D01*
X0Y9880D01*
Y102984D01*
X2980D01*
Y105756D01*
X3480D01*
Y106256D01*
X7404D01*
Y108528D01*
X7404D01*
Y108890D01*
X7404D01*
Y109622D01*
X9370D01*
X14435Y104558D01*
X14435Y104558D01*
X15096Y104116D01*
X15877Y103961D01*
X15877Y103961D01*
X18636D01*
X18699Y103851D01*
X19351Y103199D01*
X20149Y102738D01*
X21039Y102500D01*
X21961D01*
X22851Y102738D01*
X23649Y103199D01*
X24301Y103851D01*
X24761Y104649D01*
X25000Y105539D01*
Y106461D01*
X24761Y107351D01*
X24301Y108149D01*
X23649Y108801D01*
X22851Y109262D01*
X21961Y109500D01*
X21039D01*
X20149Y109262D01*
X19351Y108801D01*
X18699Y108149D01*
X18636Y108039D01*
X16721D01*
X11657Y113103D01*
X10995Y113545D01*
X10215Y113701D01*
X7404D01*
Y114433D01*
X7404D01*
Y114795D01*
X7404D01*
Y120006D01*
X7904Y120213D01*
X13138Y114978D01*
X13000Y114461D01*
Y113539D01*
X13239Y112649D01*
X13699Y111851D01*
X14351Y111199D01*
X15149Y110739D01*
X16039Y110500D01*
X16961D01*
X17851Y110739D01*
X18649Y111199D01*
X19301Y111851D01*
X19761Y112649D01*
X19944Y113329D01*
X20470Y113511D01*
X28554Y105427D01*
Y97550D01*
X28137Y97310D01*
X27454Y96627D01*
X27286Y96565D01*
X26816Y96568D01*
X26442Y96942D01*
X25780Y97384D01*
X25000Y97539D01*
X23240D01*
Y97681D01*
X13760D01*
Y97681D01*
X13662Y97629D01*
X13280Y97884D01*
X12500Y98039D01*
X9891D01*
X9651Y98456D01*
X8906Y99201D01*
X7994Y99727D01*
X6977Y100000D01*
X5923D01*
X4906Y99727D01*
X3994Y99201D01*
X3249Y98456D01*
X2723Y97544D01*
X2450Y96527D01*
Y95473D01*
X2723Y94456D01*
X3249Y93544D01*
X3994Y92799D01*
X4906Y92273D01*
X5923Y92000D01*
X6977D01*
X7994Y92273D01*
X8906Y92799D01*
X9651Y93544D01*
X9891Y93961D01*
X11704D01*
X12220Y93616D01*
X13000Y93461D01*
X13376D01*
X13760Y93181D01*
Y89144D01*
X12655Y88039D01*
X10450D01*
Y90000D01*
X2450D01*
Y82000D01*
X10450D01*
Y83961D01*
X13500D01*
X14280Y84116D01*
X14942Y84558D01*
X17442Y87058D01*
X17884Y87720D01*
X18039Y88500D01*
Y88819D01*
X23240D01*
X23240Y88819D01*
Y88819D01*
X23598Y88519D01*
X24449Y87667D01*
X25111Y87225D01*
X25891Y87070D01*
X27243D01*
X27435Y86608D01*
X27392Y86565D01*
X26865Y85653D01*
X26593Y84636D01*
Y83582D01*
X26865Y82565D01*
X26873Y82552D01*
X24676Y80354D01*
X24344Y79858D01*
X24228Y79273D01*
Y75194D01*
X23840Y74806D01*
X23378Y74997D01*
Y76681D01*
X21500D01*
Y74500D01*
X20500D01*
Y76681D01*
X13898D01*
Y75849D01*
X13765Y75761D01*
X10962Y72958D01*
X10500Y73149D01*
Y78000D01*
X2500D01*
Y70000D01*
X8909D01*
X9116Y69500D01*
X7491Y67875D01*
X7027Y68000D01*
X5973D01*
X4956Y67727D01*
X4044Y67201D01*
X3299Y66456D01*
X2772Y65544D01*
X2500Y64527D01*
Y63473D01*
X2772Y62456D01*
X3299Y61544D01*
X4044Y60799D01*
X4956Y60273D01*
X5973Y60000D01*
X7027D01*
X8044Y60273D01*
X8956Y60799D01*
X9132Y60975D01*
X9594Y60783D01*
Y59977D01*
X7492Y57875D01*
X7027Y58000D01*
X5973D01*
X4956Y57727D01*
X4044Y57201D01*
X3299Y56456D01*
X2772Y55544D01*
X2500Y54527D01*
Y53473D01*
X2772Y52456D01*
X3299Y51544D01*
X4044Y50799D01*
X4956Y50273D01*
X5973Y50000D01*
X7027D01*
X8044Y50273D01*
X8956Y50799D01*
X9701Y51544D01*
X10227Y52456D01*
X10500Y53473D01*
Y54527D01*
X10375Y54992D01*
X13075Y57691D01*
X13517Y58352D01*
X13517Y58352D01*
X13672Y59133D01*
Y62288D01*
X15480Y64096D01*
X15928Y63837D01*
X15850Y63546D01*
Y62454D01*
X16133Y61398D01*
X16679Y60452D01*
X17452Y59680D01*
X18398Y59133D01*
X19454Y58850D01*
X20546D01*
X21602Y59133D01*
X22548Y59680D01*
X23321Y60452D01*
X23867Y61398D01*
X24149Y62454D01*
Y63546D01*
X23867Y64602D01*
X23321Y65548D01*
X22548Y66321D01*
X21602Y66867D01*
X20546Y67150D01*
X19454D01*
X18398Y66867D01*
X17980Y67203D01*
X18039Y67500D01*
Y67819D01*
X23378D01*
Y70018D01*
X26131Y72771D01*
X26593Y72580D01*
Y70109D01*
X30093D01*
Y74109D01*
Y78109D01*
X27286D01*
Y78640D01*
X29036Y80389D01*
X29049Y80381D01*
X30066Y80109D01*
X31119D01*
X32137Y80381D01*
X33049Y80908D01*
X33794Y81653D01*
X34034Y82070D01*
X40151D01*
X40392Y81653D01*
X41137Y80908D01*
X42049Y80381D01*
X43066Y80109D01*
X44119D01*
X45137Y80381D01*
X46049Y80908D01*
X46793Y81653D01*
X47320Y82565D01*
X47593Y83582D01*
Y84636D01*
X47320Y85653D01*
X46793Y86565D01*
X46049Y87310D01*
X45137Y87836D01*
X44119Y88109D01*
X43066D01*
X42049Y87836D01*
X41137Y87310D01*
X40392Y86565D01*
X40151Y86148D01*
X34034D01*
X33794Y86565D01*
X33751Y86608D01*
X33942Y87070D01*
X38593D01*
X39373Y87225D01*
X40035Y87667D01*
X42601Y90233D01*
X43066Y90109D01*
X44119D01*
X45137Y90381D01*
X46049Y90908D01*
X46793Y91653D01*
X47320Y92565D01*
X47593Y93582D01*
Y94635D01*
X47320Y95653D01*
X46793Y96565D01*
X46049Y97310D01*
X45539Y97604D01*
Y99000D01*
X45384Y99780D01*
X44942Y100442D01*
X9430Y135954D01*
X9285Y136050D01*
X9495Y136512D01*
X9539Y136500D01*
X10461D01*
X11351Y136739D01*
X12149Y137199D01*
X12801Y137851D01*
X13262Y138649D01*
X13500Y139539D01*
Y140461D01*
X13262Y141351D01*
X12801Y142149D01*
X12149Y142801D01*
X11558Y143142D01*
X11628Y143679D01*
X11851Y143738D01*
X12649Y144199D01*
X13301Y144851D01*
X13761Y145649D01*
X14000Y146539D01*
Y147461D01*
X13761Y148351D01*
X13301Y149149D01*
X12649Y149801D01*
X11851Y150261D01*
X10961Y150500D01*
X10039D01*
X9149Y150261D01*
X8351Y149801D01*
X8094Y149543D01*
X7528Y149653D01*
X7404Y149866D01*
Y150228D01*
X7404D01*
Y152888D01*
X8477Y153961D01*
X66000D01*
X66780Y154116D01*
X67442Y154558D01*
X68345Y155461D01*
X69577D01*
Y153500D01*
D02*
G37*
G36*
X41461Y98155D02*
Y97497D01*
X41137Y97310D01*
X40392Y96565D01*
X39865Y95653D01*
X39593Y94635D01*
Y93582D01*
X39717Y93117D01*
X37748Y91148D01*
X33942D01*
X33751Y91610D01*
X33794Y91653D01*
X34320Y92565D01*
X34593Y93582D01*
Y94635D01*
X34320Y95653D01*
X33794Y96565D01*
X33049Y97310D01*
X32632Y97550D01*
Y106271D01*
X32631Y106279D01*
X33091Y106525D01*
X41461Y98155D01*
D02*
G37*
G36*
X49343Y60286D02*
Y58559D01*
X56657D01*
Y58780D01*
X57260D01*
Y55069D01*
X57599D01*
Y54137D01*
X57439Y53688D01*
X56657D01*
Y55441D01*
X52032D01*
X51835Y55480D01*
X49404D01*
X47630Y57254D01*
Y59386D01*
X48138Y59680D01*
X48842Y60383D01*
X49343Y60286D01*
D02*
G37*
G36*
Y34786D02*
Y30059D01*
X56657D01*
Y30059D01*
X56760Y30115D01*
X57260Y29820D01*
Y26569D01*
X57599D01*
Y25815D01*
X56657D01*
Y26941D01*
X50443D01*
X47539Y29845D01*
Y31635D01*
X47630Y32091D01*
Y33886D01*
X48138Y34179D01*
X48842Y34883D01*
X49343Y34786D01*
D02*
G37*
%LPC*%
G36*
X80000Y143138D02*
X78319D01*
Y141260D01*
X80000D01*
Y143138D01*
D02*
G37*
G36*
X51301Y136677D02*
X42927D01*
Y128303D01*
X51301D01*
Y136677D01*
D02*
G37*
G36*
X41927D02*
X33553D01*
Y128303D01*
X41927D01*
Y136677D01*
D02*
G37*
G36*
X51301Y127303D02*
X42927D01*
Y118929D01*
X51301D01*
Y127303D01*
D02*
G37*
G36*
X41927D02*
X33553D01*
Y118929D01*
X41927D01*
Y127303D01*
D02*
G37*
G36*
X91000Y119700D02*
X87500D01*
Y116200D01*
X91000D01*
Y119700D01*
D02*
G37*
G36*
X86500D02*
X83000D01*
Y116200D01*
X86500D01*
Y119700D01*
D02*
G37*
G36*
X91000Y115200D02*
X87500D01*
Y111700D01*
X91000D01*
Y115200D01*
D02*
G37*
G36*
X7404Y105256D02*
X3980D01*
Y102984D01*
X7404D01*
Y105256D01*
D02*
G37*
G36*
X65083Y98921D02*
X63917D01*
X62773Y98694D01*
X61695Y98247D01*
X60725Y97599D01*
X59901Y96775D01*
X59253Y95805D01*
X58806Y94727D01*
X58579Y93583D01*
Y92417D01*
X58806Y91273D01*
X59253Y90195D01*
X59901Y89226D01*
X60725Y88401D01*
X61695Y87753D01*
X62773Y87306D01*
X63917Y87079D01*
X65083D01*
X66227Y87306D01*
X67305Y87753D01*
X68274Y88401D01*
X69099Y89226D01*
X69747Y90195D01*
X70194Y91273D01*
X70421Y92417D01*
Y93583D01*
X70194Y94727D01*
X69747Y95805D01*
X69099Y96775D01*
X68274Y97599D01*
X67305Y98247D01*
X66227Y98694D01*
X65083Y98921D01*
D02*
G37*
G36*
X47593Y78109D02*
X44093D01*
Y74609D01*
X47593D01*
Y78109D01*
D02*
G37*
G36*
X34593D02*
X31093D01*
Y74609D01*
X34593D01*
Y78109D01*
D02*
G37*
G36*
X43093D02*
X39593D01*
Y74609D01*
X43093D01*
Y78109D01*
D02*
G37*
G36*
X47593Y73609D02*
X44093D01*
Y70109D01*
X47593D01*
Y73609D01*
D02*
G37*
G36*
X43093D02*
X39593D01*
Y70109D01*
X43093D01*
Y73609D01*
D02*
G37*
G36*
X34593D02*
X31093D01*
Y70109D01*
X34593D01*
Y73609D01*
D02*
G37*
G36*
X59138Y66181D02*
X57260D01*
Y64500D01*
X59138D01*
Y66181D01*
D02*
G37*
G36*
Y37681D02*
X57260D01*
Y36000D01*
X59138D01*
Y37681D01*
D02*
G37*
G36*
X24149Y44783D02*
X20000D01*
X15850D01*
Y44737D01*
X16133Y43682D01*
X16679Y42735D01*
X17452Y41963D01*
X17941Y41680D01*
Y41103D01*
X17452Y40821D01*
X16679Y40048D01*
X16133Y39102D01*
X15850Y38046D01*
Y36954D01*
X16133Y35898D01*
X16679Y34952D01*
X17452Y34179D01*
X18398Y33633D01*
X19454Y33350D01*
X20546D01*
X21602Y33633D01*
X22548Y34179D01*
X23321Y34952D01*
X23867Y35898D01*
X24149Y36954D01*
Y38046D01*
X23867Y39102D01*
X23321Y40048D01*
X22548Y40821D01*
X22059Y41103D01*
Y41680D01*
X22548Y41963D01*
X23321Y42735D01*
X23867Y43682D01*
X24149Y44737D01*
Y44783D01*
D02*
G37*
G36*
X6977Y36000D02*
X6950D01*
Y32500D01*
X10450D01*
Y32527D01*
X10177Y33544D01*
X9651Y34456D01*
X8906Y35201D01*
X7994Y35727D01*
X6977Y36000D01*
D02*
G37*
G36*
X5950D02*
X5923D01*
X4906Y35727D01*
X3994Y35201D01*
X3249Y34456D01*
X2723Y33544D01*
X2450Y32527D01*
Y32500D01*
X5950D01*
Y36000D01*
D02*
G37*
G36*
X10450Y31500D02*
X6950D01*
Y28000D01*
X6977D01*
X7994Y28273D01*
X8906Y28799D01*
X9651Y29544D01*
X10177Y30456D01*
X10450Y31473D01*
Y31500D01*
D02*
G37*
G36*
X5950D02*
X2450D01*
Y31473D01*
X2723Y30456D01*
X3249Y29544D01*
X3994Y28799D01*
X4906Y28273D01*
X5923Y28000D01*
X5950D01*
Y31500D01*
D02*
G37*
G36*
X20546Y23933D02*
X20500D01*
Y20283D01*
X24149D01*
Y20330D01*
X23867Y21385D01*
X23321Y22331D01*
X22548Y23104D01*
X21602Y23650D01*
X20546Y23933D01*
D02*
G37*
G36*
X45091D02*
X45044D01*
X43989Y23650D01*
X43043Y23104D01*
X42270Y22331D01*
X41724Y21385D01*
X41441Y20330D01*
Y20283D01*
X45091D01*
Y23933D01*
D02*
G37*
G36*
X19500D02*
X19454D01*
X18398Y23650D01*
X17452Y23104D01*
X16679Y22331D01*
X16133Y21385D01*
X15850Y20330D01*
Y20283D01*
X19500D01*
Y23933D01*
D02*
G37*
G36*
X49740Y19283D02*
X46091D01*
Y15634D01*
X46137D01*
X47192Y15917D01*
X48138Y16463D01*
X48911Y17235D01*
X49457Y18182D01*
X49740Y19237D01*
Y19283D01*
D02*
G37*
G36*
X45091D02*
X41441D01*
Y19237D01*
X41724Y18182D01*
X42270Y17235D01*
X43043Y16463D01*
X43989Y15917D01*
X45044Y15634D01*
X45091D01*
Y19283D01*
D02*
G37*
G36*
X24149D02*
X20500D01*
Y15634D01*
X20546D01*
X21602Y15917D01*
X22548Y16463D01*
X23321Y17235D01*
X23867Y18182D01*
X24149Y19237D01*
Y19283D01*
D02*
G37*
G36*
X19500D02*
X15850D01*
Y19237D01*
X16133Y18182D01*
X16679Y17235D01*
X17452Y16463D01*
X18398Y15917D01*
X19454Y15634D01*
X19500D01*
Y19283D01*
D02*
G37*
G36*
X71709Y18945D02*
X68059D01*
Y15000D01*
X71709D01*
Y18945D01*
D02*
G37*
G36*
X8583Y24921D02*
X7417D01*
X6273Y24694D01*
X5195Y24247D01*
X4225Y23599D01*
X3401Y22775D01*
X2753Y21805D01*
X2306Y20727D01*
X2079Y19583D01*
Y18417D01*
X2306Y17273D01*
X2753Y16195D01*
X3401Y15225D01*
X4225Y14401D01*
X5195Y13753D01*
X6273Y13306D01*
X7417Y13079D01*
X8583D01*
X9727Y13306D01*
X10805Y13753D01*
X11774Y14401D01*
X12599Y15225D01*
X13247Y16195D01*
X13694Y17273D01*
X13921Y18417D01*
Y19583D01*
X13694Y20727D01*
X13247Y21805D01*
X12599Y22775D01*
X11774Y23599D01*
X10805Y24247D01*
X9727Y24694D01*
X8583Y24921D01*
D02*
G37*
G36*
X71709Y14000D02*
X68059D01*
Y10055D01*
X71709D01*
Y14000D01*
D02*
G37*
G36*
X64941Y18945D02*
X56642D01*
Y10055D01*
X58461D01*
Y9500D01*
X56500D01*
Y7539D01*
X44500D01*
Y9500D01*
X36500D01*
Y1500D01*
X44500D01*
Y3461D01*
X56500D01*
Y1500D01*
X64500D01*
Y9500D01*
X62539D01*
Y10055D01*
X64941D01*
Y18945D01*
D02*
G37*
G36*
X31027Y9500D02*
X31000D01*
Y6000D01*
X34500D01*
Y6027D01*
X34227Y7044D01*
X33701Y7956D01*
X32956Y8701D01*
X32044Y9228D01*
X31027Y9500D01*
D02*
G37*
G36*
X71027D02*
X71000D01*
Y6000D01*
X74500D01*
Y6027D01*
X74227Y7044D01*
X73701Y7956D01*
X72956Y8701D01*
X72044Y9228D01*
X71027Y9500D01*
D02*
G37*
G36*
X70000D02*
X69973D01*
X68956Y9228D01*
X68044Y8701D01*
X67299Y7956D01*
X66773Y7044D01*
X66500Y6027D01*
Y6000D01*
X70000D01*
Y9500D01*
D02*
G37*
G36*
X30000D02*
X29973D01*
X28956Y9228D01*
X28044Y8701D01*
X27299Y7956D01*
X26772Y7044D01*
X26500Y6027D01*
Y6000D01*
X30000D01*
Y9500D01*
D02*
G37*
G36*
X74500Y5000D02*
X71000D01*
Y1500D01*
X71027D01*
X72044Y1773D01*
X72956Y2299D01*
X73701Y3044D01*
X74227Y3956D01*
X74500Y4973D01*
Y5000D01*
D02*
G37*
G36*
X70000D02*
X66500D01*
Y4973D01*
X66773Y3956D01*
X67299Y3044D01*
X68044Y2299D01*
X68956Y1773D01*
X69973Y1500D01*
X70000D01*
Y5000D01*
D02*
G37*
G36*
X34500D02*
X31000D01*
Y1500D01*
X31027D01*
X32044Y1773D01*
X32956Y2299D01*
X33701Y3044D01*
X34227Y3956D01*
X34500Y4973D01*
Y5000D01*
D02*
G37*
G36*
X30000D02*
X26500D01*
Y4973D01*
X26772Y3956D01*
X27299Y3044D01*
X28044Y2299D01*
X28956Y1773D01*
X29973Y1500D01*
X30000D01*
Y5000D01*
D02*
G37*
%LPD*%
D11*
X87000Y13500D02*
Y19945D01*
X74651Y147094D02*
X77819Y150262D01*
Y150361D01*
X78760Y151302D01*
Y152819D01*
X79441Y153500D02*
X79638D01*
X73500Y147094D02*
X74651D01*
X78760Y152819D02*
X79441Y153500D01*
X87000Y143441D02*
X89681Y140760D01*
X90654D01*
X91500Y139914D01*
Y129200D02*
Y139914D01*
X88000Y125700D02*
X91500Y129200D01*
X93500Y109000D02*
Y141441D01*
X91500Y143441D02*
X93500Y141441D01*
X90000Y105500D02*
X93500Y109000D01*
X87000Y143441D02*
Y143638D01*
X91500Y143441D02*
Y143638D01*
X88547Y153500D02*
X89032Y153984D01*
Y154000D01*
X84362Y153500D02*
X88547D01*
X14950Y50500D02*
X47831D01*
X6450Y42000D02*
X14950Y50500D01*
X47831D02*
X50512Y47819D01*
X61637D01*
X62516Y48698D01*
Y48851D01*
X64165Y50500D01*
X64362D01*
X25757Y79273D02*
X30593Y84109D01*
X25757Y74560D02*
Y79273D01*
X21197Y70000D02*
X25757Y74560D01*
X21000Y70000D02*
X21197D01*
X64362Y22000D02*
X84945D01*
X87000Y19945D01*
D15*
X42427Y127803D02*
D03*
D16*
X73500Y153000D02*
D03*
Y147094D02*
D03*
Y141189D02*
D03*
Y135283D02*
D03*
Y129378D02*
D03*
Y123472D02*
D03*
Y117567D02*
D03*
Y111661D02*
D03*
Y105756D02*
D03*
X3480D02*
D03*
Y111661D02*
D03*
Y117567D02*
D03*
Y123472D02*
D03*
Y129378D02*
D03*
Y135283D02*
D03*
Y141189D02*
D03*
Y147094D02*
D03*
Y153000D02*
D03*
D17*
X16138Y91000D02*
D03*
X20862D02*
D03*
X16138Y95500D02*
D03*
X20862D02*
D03*
X64362Y50500D02*
D03*
X59638D02*
D03*
X64362Y57250D02*
D03*
X59638D02*
D03*
Y64000D02*
D03*
X64362D02*
D03*
X21000Y70000D02*
D03*
X16276D02*
D03*
Y74500D02*
D03*
X21000D02*
D03*
X59638Y35500D02*
D03*
X64362D02*
D03*
X59638Y28750D02*
D03*
X64362D02*
D03*
Y22000D02*
D03*
X59638D02*
D03*
X84362Y153500D02*
D03*
X79638D02*
D03*
D18*
X53000Y52276D02*
D03*
Y61724D02*
D03*
Y23776D02*
D03*
Y33224D02*
D03*
D19*
X87000Y148362D02*
D03*
Y143638D02*
D03*
X91500Y148362D02*
D03*
Y143638D02*
D03*
X80500Y143638D02*
D03*
Y148362D02*
D03*
D20*
X86945Y13500D02*
D03*
X80055D02*
D03*
D21*
X60791Y14500D02*
D03*
X72209D02*
D03*
D22*
X89032Y154000D02*
D03*
X92969D02*
D03*
D37*
X66000Y156000D02*
X67500Y157500D01*
X4632Y153000D02*
X7632Y156000D01*
X66000D01*
X67500Y157500D02*
X91500D01*
X3480Y141189D02*
X4095Y140574D01*
X9426D01*
X10000Y140000D01*
X3480Y147094D02*
X3528Y147047D01*
X10453D01*
X10500Y147000D01*
X87000Y148165D02*
Y148362D01*
X84984Y147984D02*
X86819D01*
X83819Y140681D02*
X85000Y139500D01*
X80500Y148362D02*
X87000D01*
X83819Y146819D02*
X84984Y147984D01*
X83819Y140681D02*
Y146819D01*
X86819Y147984D02*
X87000Y148165D01*
X18500Y149500D02*
X48000D01*
X62217Y135283D01*
X13000Y95500D02*
X16138D01*
X16138Y95500D01*
X12500Y96000D02*
X13000Y95500D01*
X6450Y96000D02*
X12500D01*
X16000Y88500D02*
Y90862D01*
X16138Y91000D01*
X6450Y86000D02*
X13500D01*
X16000Y88500D01*
X25891Y89109D02*
X38593D01*
X24000Y91000D02*
X25891Y89109D01*
X20862Y91000D02*
X24000D01*
X30451Y94251D02*
X30593Y94109D01*
X25000Y95500D02*
X26249Y94251D01*
X30451D01*
X22203Y95500D02*
X25000D01*
X73500Y43000D02*
Y105756D01*
X66000Y35500D02*
X73500Y43000D01*
X15877Y106000D02*
X21500D01*
X3480Y111661D02*
X10215D01*
X15877Y106000D01*
X92984Y152484D02*
Y154327D01*
X92969Y154000D02*
Y156032D01*
X91500Y157500D02*
X92969Y156032D01*
X92984Y154327D02*
X93000Y154343D01*
X91681Y151181D02*
X92984Y152484D01*
X91500Y148362D02*
X91681Y148543D01*
Y151181D01*
X80500Y148362D02*
X80500Y148362D01*
X87000D02*
X87000Y148362D01*
X91500D01*
X85000Y137700D02*
X87000Y135700D01*
X85000Y137700D02*
Y139500D01*
X79500Y111664D02*
Y114500D01*
X77205Y116795D02*
X79500Y114500D01*
X74272Y116795D02*
X77205D01*
X3480Y153000D02*
X4632D01*
X30593Y84109D02*
X43593D01*
X82500Y86000D02*
X88700D01*
X79000Y89500D02*
Y107779D01*
Y89500D02*
X82500Y86000D01*
X84800Y95700D02*
X89000D01*
X82000Y98500D02*
Y109165D01*
Y98500D02*
X84800Y95700D01*
X79500Y111664D02*
X82000Y109165D01*
X73500Y117567D02*
X74272Y116795D01*
X73500Y111661D02*
X74272Y110890D01*
X75889D01*
X79000Y107779D01*
X51835Y53441D02*
X53626Y51649D01*
X63984Y35319D02*
X64362D01*
X64559Y63819D02*
Y66190D01*
Y57250D02*
Y63819D01*
X62217Y135283D02*
X73500D01*
X16500Y114000D02*
Y114500D01*
X8299Y122701D02*
X16500Y114500D01*
X30593Y94109D02*
Y106271D01*
X4252Y128606D02*
X8258D01*
X30593Y106271D01*
X4252Y122701D02*
X8299D01*
X3480Y123472D02*
X4252Y122701D01*
X64362Y35319D02*
Y35500D01*
Y28750D02*
Y35319D01*
Y35500D02*
X66000D01*
X64362Y64000D02*
X64378D01*
X52500Y78249D02*
X64559Y66190D01*
X52500Y78249D02*
Y113500D01*
X67606Y128606D01*
X72728D01*
X73500Y129378D01*
X11500Y69000D02*
Y70612D01*
X16095Y74319D02*
X16276Y74500D01*
X6500Y64000D02*
X11500Y69000D01*
Y70612D02*
X15207Y74319D01*
X16095D01*
X16000Y67500D02*
Y69819D01*
X16181Y70000D02*
X16276D01*
X16000Y69819D02*
X16181Y70000D01*
X11633Y59133D02*
Y63133D01*
X6500Y54000D02*
X11633Y59133D01*
Y63133D02*
X16000Y67500D01*
X3480Y129378D02*
X4252Y128606D01*
X38593Y89109D02*
X43593Y94109D01*
X43500Y94201D02*
Y99000D01*
Y94201D02*
X43593Y94109D01*
X4252Y134512D02*
X7988D01*
X43500Y99000D01*
X3480Y135283D02*
X4252Y134512D01*
X52276Y24500D02*
X53000Y23776D01*
X50000Y24500D02*
X52276D01*
X45500Y29000D02*
X50000Y24500D01*
X45500Y29000D02*
Y32000D01*
X45591Y32091D01*
Y37500D01*
X57431Y32319D02*
X61844D01*
X63984Y34459D02*
Y35319D01*
X61844Y32319D02*
X63984Y34459D01*
X53000Y33224D02*
X53770Y32455D01*
X57296D02*
X57431Y32319D01*
X53770Y32455D02*
X57296D01*
X59260Y22181D02*
Y22378D01*
Y22181D02*
X59441Y22000D01*
X53000Y23776D02*
X57862D01*
X59260Y22378D01*
X59441Y22000D02*
X59638D01*
Y28750D01*
X53626Y51649D02*
X57439D01*
X58407Y50681D01*
X59260D01*
X59638Y51200D02*
Y57250D01*
X64378Y64000D02*
X64559Y63819D01*
X62319Y60819D02*
X63984Y62484D01*
X53906Y60819D02*
X62319D01*
X53000Y61724D02*
X53906Y60819D01*
X48559Y53441D02*
X51835D01*
X45591Y56409D02*
Y63000D01*
Y56409D02*
X48559Y53441D01*
X87000Y7500D02*
Y13445D01*
X85521Y6021D02*
X87000Y7500D01*
X80500Y5500D02*
X81021Y6021D01*
X85521D01*
X60500Y14209D02*
X60791Y14500D01*
X60500Y5500D02*
Y14209D01*
X40500Y5500D02*
X60500D01*
D38*
X45591Y19783D02*
D03*
X20000D02*
D03*
Y37500D02*
D03*
X45591D02*
D03*
Y45283D02*
D03*
X20000D02*
D03*
Y63000D02*
D03*
X45591D02*
D03*
D39*
X87000Y95700D02*
D03*
Y125700D02*
D03*
Y105700D02*
D03*
Y115700D02*
D03*
Y135700D02*
D03*
Y85700D02*
D03*
X30593Y74109D02*
D03*
X6450Y42000D02*
D03*
Y86000D02*
D03*
X6500Y74000D02*
D03*
X43593Y74109D02*
D03*
D40*
X30593Y94109D02*
D03*
Y84109D02*
D03*
X6450Y32000D02*
D03*
Y96000D02*
D03*
X6500Y54000D02*
D03*
Y64000D02*
D03*
X80500Y5500D02*
D03*
X70500D02*
D03*
X30500D02*
D03*
X43593Y94109D02*
D03*
Y84109D02*
D03*
D41*
X60500Y5500D02*
D03*
X40500D02*
D03*
D42*
X8000Y19000D02*
D03*
X64500Y93000D02*
D03*
D43*
X10000Y140000D02*
D03*
X10500Y147000D02*
D03*
X18500Y149500D02*
D03*
X21500Y106000D02*
D03*
X16500Y114000D02*
D03*
M02*
